На ветке master
Изменения, которые не в индексе для коммита:
	deleted:                    "DATASHEETS/\320\230\320\241\320\232\320\240\320\220_\320\277\321\200\320\276\321\207\320\270\320\265_\320\272\320\260\320\273\321\214\320\272/111i_sh.djvu"
	deleted:                    "DATASHEETS/\320\230\320\241\320\232\320\240\320\220_\320\277\321\200\320\276\321\207\320\270\320\265_\320\272\320\260\320\273\321\214\320\272/111i_sh.djvu (2)"
	deleted:                    "DATASHEETS/\320\230\320\241\320\232\320\240\320\220_\320\277\321\200\320\276\321\207\320\270\320\265_\320\272\320\260\320\273\321\214\320\272/122.djvu"
	deleted:                    "DATASHEETS/\320\230\320\241\320\232\320\240\320\220_\320\277\321\200\320\276\321\207\320\270\320\265_\320\272\320\260\320\273\321\214\320\272/43305_part1.djvu"
	deleted:                    "DATASHEETS/\320\230\320\241\320\232\320\240\320\220_\320\277\321\200\320\276\321\207\320\270\320\265_\320\272\320\260\320\273\321\214\320\272/43305_part1.rar"
	deleted:                    "DATASHEETS/\320\230\320\241\320\232\320\240\320\220_\320\277\321\200\320\276\321\207\320\270\320\265_\320\272\320\260\320\273\321\214\320\272/b3-24sch.rar"
	deleted:                    "DATASHEETS/\320\230\320\241\320\232\320\240\320\220_\320\277\321\200\320\276\321\207\320\270\320\265_\320\272\320\260\320\273\321\214\320\272/brp-dumps.rar"
	deleted:                    "DATASHEETS/\320\230\320\241\320\232\320\240\320\220_\320\277\321\200\320\276\321\207\320\270\320\265_\320\272\320\260\320\273\321\214\320\272/calcdjvu.rar"
	deleted:                    "DATASHEETS/\320\230\320\241\320\232\320\240\320\220_\320\277\321\200\320\276\321\207\320\270\320\265_\320\272\320\260\320\273\321\214\320\272/e60093e5d7be.jpg"
	deleted:                    "DATASHEETS/\320\230\320\241\320\232\320\240\320\220_\320\277\321\200\320\276\321\207\320\270\320\265_\320\272\320\260\320\273\321\214\320\272/e6df88ee31cc.jpg"
	deleted:                    "DATASHEETS/\320\230\320\241\320\232\320\240\320\220_\320\277\321\200\320\276\321\207\320\270\320\265_\320\272\320\260\320\273\321\214\320\272/iskra-111_ins.rar"
	deleted:                    "DATASHEETS/\320\230\320\241\320\232\320\240\320\220_\320\277\321\200\320\276\321\207\320\270\320\265_\320\272\320\260\320\273\321\214\320\272/iskra-111_sch_ps.rar"
	deleted:                    "DATASHEETS/\320\230\320\241\320\232\320\240\320\220_\320\277\321\200\320\276\321\207\320\270\320\265_\320\272\320\260\320\273\321\214\320\272/iskra-111i_pas.rar"
	deleted:                    "DATASHEETS/\320\230\320\241\320\232\320\240\320\220_\320\277\321\200\320\276\321\207\320\270\320\265_\320\272\320\260\320\273\321\214\320\272/iskra-111i_sch.rar"
	deleted:                    "DATASHEETS/\320\230\320\241\320\232\320\240\320\220_\320\277\321\200\320\276\321\207\320\270\320\265_\320\272\320\260\320\273\321\214\320\272/iskra-122-1-ps.jpg"
	deleted:                    "DATASHEETS/\320\230\320\241\320\232\320\240\320\220_\320\277\321\200\320\276\321\207\320\270\320\265_\320\272\320\260\320\273\321\214\320\272/iskra-122_ins.rar"
	deleted:                    "DATASHEETS/\320\230\320\241\320\232\320\240\320\220_\320\277\321\200\320\276\321\207\320\270\320\265_\320\272\320\260\320\273\321\214\320\272/iskra-123_ins.rar"
	deleted:                    "DATASHEETS/\320\230\320\241\320\232\320\240\320\220_\320\277\321\200\320\276\321\207\320\270\320\265_\320\272\320\260\320\273\321\214\320\272/iskra-124_ins.rar"
	deleted:                    "DATASHEETS/\320\230\320\241\320\232\320\240\320\220_\320\277\321\200\320\276\321\207\320\270\320\265_\320\272\320\260\320\273\321\214\320\272/iskra123_to.rar"
	deleted:                    "DATASHEETS/\320\230\320\241\320\232\320\240\320\220_\320\277\321\200\320\276\321\207\320\270\320\265_\320\272\320\260\320\273\321\214\320\272/iskra_111.rar"
	deleted:                    "DATASHEETS/\320\230\320\241\320\232\320\240\320\220_\320\277\321\200\320\276\321\207\320\270\320\265_\320\272\320\260\320\273\321\214\320\272/iskra_122-1_sch.rar"
	deleted:                    "DATASHEETS/\320\230\320\241\320\232\320\240\320\220_\320\277\321\200\320\276\321\207\320\270\320\265_\320\272\320\260\320\273\321\214\320\272/iskra_122-1_sch/iskra_122-1_sch_01.jpg"
	deleted:                    "DATASHEETS/\320\230\320\241\320\232\320\240\320\220_\320\277\321\200\320\276\321\207\320\270\320\265_\320\272\320\260\320\273\321\214\320\272/iskra_122-1_sch/iskra_122-1_sch_02.jpg"
	deleted:                    "DATASHEETS/\320\230\320\241\320\232\320\240\320\220_\320\277\321\200\320\276\321\207\320\270\320\265_\320\272\320\260\320\273\321\214\320\272/iskra_122-1_sch/iskra_122-1_sch_03.jpg"
	deleted:                    "DATASHEETS/\320\230\320\241\320\232\320\240\320\220_\320\277\321\200\320\276\321\207\320\270\320\265_\320\272\320\260\320\273\321\214\320\272/iskra_122-1_sch/iskra_122-1_sch_04.jpg"
	deleted:                    "DATASHEETS/\320\230\320\241\320\232\320\240\320\220_\320\277\321\200\320\276\321\207\320\270\320\265_\320\272\320\260\320\273\321\214\320\272/iskra_122-1_sch/iskra_122-1_sch_05.jpg"
	deleted:                    "DATASHEETS/\320\230\320\241\320\232\320\240\320\220_\320\277\321\200\320\276\321\207\320\270\320\265_\320\272\320\260\320\273\321\214\320\272/iskra_122-1_sch/iskra_122-1_sch_06.jpg"
	deleted:                    "DATASHEETS/\320\230\320\241\320\232\320\240\320\220_\320\277\321\200\320\276\321\207\320\270\320\265_\320\272\320\260\320\273\321\214\320\272/iskra_122-1_sch/iskra_122-1_sch_07.jpg"
	deleted:                    "DATASHEETS/\320\230\320\241\320\232\320\240\320\220_\320\277\321\200\320\276\321\207\320\270\320\265_\320\272\320\260\320\273\321\214\320\272/iskra_122-1_sch/iskra_122-1_sch_08.jpg"
	deleted:                    "DATASHEETS/\320\230\320\241\320\232\320\240\320\220_\320\277\321\200\320\276\321\207\320\270\320\265_\320\272\320\260\320\273\321\214\320\272/iskra_122-1_sch/iskra_122-1_sch_09.jpg"
	deleted:                    "DATASHEETS/\320\230\320\241\320\232\320\240\320\220_\320\277\321\200\320\276\321\207\320\270\320\265_\320\272\320\260\320\273\321\214\320\272/iskra_122-1_sch/iskra_122-1_sch_10.jpg"
	deleted:                    "DATASHEETS/\320\230\320\241\320\232\320\240\320\220_\320\277\321\200\320\276\321\207\320\270\320\265_\320\272\320\260\320\273\321\214\320\272/iskra_122-1_sch/iskra_122-1_sch_11.jpg"
	deleted:                    "DATASHEETS/\320\230\320\241\320\232\320\240\320\220_\320\277\321\200\320\276\321\207\320\270\320\265_\320\272\320\260\320\273\321\214\320\272/iskra_122-1_sch/iskra_122-1_sch_12.jpg"
	deleted:                    "DATASHEETS/\320\230\320\241\320\232\320\240\320\220_\320\277\321\200\320\276\321\207\320\270\320\265_\320\272\320\260\320\273\321\214\320\272/iskra_122-1_sch/iskra_122-1_sch_13.jpg"
	deleted:                    "DATASHEETS/\320\230\320\241\320\232\320\240\320\220_\320\277\321\200\320\276\321\207\320\270\320\265_\320\272\320\260\320\273\321\214\320\272/iskra_122-1_sch/iskra_122-1_sch_14.jpg"
	deleted:                    "DATASHEETS/\320\230\320\241\320\232\320\240\320\220_\320\277\321\200\320\276\321\207\320\270\320\265_\320\272\320\260\320\273\321\214\320\272/iskra_122-1_sch/iskra_122-1_sch_15.jpg"
	deleted:                    "DATASHEETS/\320\230\320\241\320\232\320\240\320\220_\320\277\321\200\320\276\321\207\320\270\320\265_\320\272\320\260\320\273\321\214\320\272/iskra_122-1_sch/iskra_122-1_sch_16.jpg"
	deleted:                    "DATASHEETS/\320\230\320\241\320\232\320\240\320\220_\320\277\321\200\320\276\321\207\320\270\320\265_\320\272\320\260\320\273\321\214\320\272/iskra_122-1_sch/iskra_122-1_sch_17.jpg"
	deleted:                    "DATASHEETS/\320\230\320\241\320\232\320\240\320\220_\320\277\321\200\320\276\321\207\320\270\320\265_\320\272\320\260\320\273\321\214\320\272/iskra_122-1_sch/iskra_122-1_sch_18.jpg"
	deleted:                    "DATASHEETS/\320\230\320\241\320\232\320\240\320\220_\320\277\321\200\320\276\321\207\320\270\320\265_\320\272\320\260\320\273\321\214\320\272/iskra_122-1_sch/iskra_122-1_sch_19.jpg"
	deleted:                    "DATASHEETS/\320\230\320\241\320\232\320\240\320\220_\320\277\321\200\320\276\321\207\320\270\320\265_\320\272\320\260\320\273\321\214\320\272/\320\221\320\260\320\272\320\273\320\260\320\275, \320\221\321\203\321\205\321\210\321\202\320\260\320\261, \320\233\320\265\320\262\320\270\321\202. \320\255\320\232\320\222\320\234 \321\200\321\217\320\264\320\260 \320\230\321\201\320\272\321\200\320\260.djvu"
	deleted:                    "DATASHEETS/\320\230\320\241\320\232\320\240\320\220_\320\277\321\200\320\276\321\207\320\270\320\265_\320\272\320\260\320\273\321\214\320\272/\320\230\320\275\321\201\321\202\321\200\321\203\320\272\321\206\320\270\320\270 \320\272 \321\201\320\276\320\262\320\265\321\202\321\201\320\272\320\270\320\274 \320\272\320\260\320\273\321\214\320\272\321\203\320\273\321\217\321\202\320\276\321\200\320\260\320\274 :: \320\224\320\236\320\232\320\243\320\234\320\225\320\235\320\242\320\220\320\246\320\230\320\257.html"
	deleted:                    "DATASHEETS/\320\230\320\241\320\232\320\240\320\220_\320\277\321\200\320\276\321\207\320\270\320\265_\320\272\320\260\320\273\321\214\320\272/\320\230\320\275\321\201\321\202\321\200\321\203\320\272\321\206\320\270\320\270 \320\272 \321\201\320\276\320\262\320\265\321\202\321\201\320\272\320\270\320\274 \320\272\320\260\320\273\321\214\320\272\321\203\320\273\321\217\321\202\320\276\321\200\320\260\320\274 :: \320\224\320\236\320\232\320\243\320\234\320\225\320\235\320\242\320\220\320\246\320\230\320\257_files/async-ads.js"
	deleted:                    "DATASHEETS/\320\230\320\241\320\232\320\240\320\220_\320\277\321\200\320\276\321\207\320\270\320\265_\320\272\320\260\320\273\321\214\320\272/\320\230\320\275\321\201\321\202\321\200\321\203\320\272\321\206\320\270\320\270 \320\272 \321\201\320\276\320\262\320\265\321\202\321\201\320\272\320\270\320\274 \320\272\320\260\320\273\321\214\320\272\321\203\320\273\321\217\321\202\320\276\321\200\320\260\320\274 :: \320\224\320\236\320\232\320\243\320\234\320\225\320\235\320\242\320\220\320\246\320\230\320\257_files/common.js"
	deleted:                    "DATASHEETS/\320\230\320\241\320\232\320\240\320\220_\320\277\321\200\320\276\321\207\320\270\320\265_\320\272\320\260\320\273\321\214\320\272/\320\230\320\275\321\201\321\202\321\200\321\203\320\272\321\206\320\270\320\270 \320\272 \321\201\320\276\320\262\320\265\321\202\321\201\320\272\320\270\320\274 \320\272\320\260\320\273\321\214\320\272\321\203\320\273\321\217\321\202\320\276\321\200\320\260\320\274 :: \320\224\320\236\320\232\320\243\320\234\320\225\320\235\320\242\320\220\320\246\320\230\320\257_files/count.gif"
	deleted:                    "DATASHEETS/\320\230\320\241\320\232\320\240\320\220_\320\277\321\200\320\276\321\207\320\270\320\265_\320\272\320\260\320\273\321\214\320\272/\320\230\320\275\321\201\321\202\321\200\321\203\320\272\321\206\320\270\320\270 \320\272 \321\201\320\276\320\262\320\265\321\202\321\201\320\272\320\270\320\274 \320\272\320\260\320\273\321\214\320\272\321\203\320\273\321\217\321\202\320\276\321\200\320\260\320\274 :: \320\224\320\236\320\232\320\243\320\234\320\225\320\235\320\242\320\220\320\246\320\230\320\257_files/counter.gif"
	deleted:                    "DATASHEETS/\320\230\320\241\320\232\320\240\320\220_\320\277\321\200\320\276\321\207\320\270\320\265_\320\272\320\260\320\273\321\214\320\272/\320\230\320\275\321\201\321\202\321\200\321\203\320\272\321\206\320\270\320\270 \320\272 \321\201\320\276\320\262\320\265\321\202\321\201\320\272\320\270\320\274 \320\272\320\260\320\273\321\214\320\272\321\203\320\273\321\217\321\202\320\276\321\200\320\260\320\274 :: \320\224\320\236\320\232\320\243\320\234\320\225\320\235\320\242\320\220\320\246\320\230\320\257_files/cse.js"
	deleted:                    "DATASHEETS/\320\230\320\241\320\232\320\240\320\220_\320\277\321\200\320\276\321\207\320\270\320\265_\320\272\320\260\320\273\321\214\320\272/\320\230\320\275\321\201\321\202\321\200\321\203\320\272\321\206\320\270\320\270 \320\272 \321\201\320\276\320\262\320\265\321\202\321\201\320\272\320\270\320\274 \320\272\320\260\320\273\321\214\320\272\321\203\320\273\321\217\321\202\320\276\321\200\320\260\320\274 :: \320\224\320\236\320\232\320\243\320\234\320\225\320\235\320\242\320\220\320\246\320\230\320\257_files/defaultru.css"
	deleted:                    "DATASHEETS/\320\230\320\241\320\232\320\240\320\220_\320\277\321\200\320\276\321\207\320\270\320\265_\320\272\320\260\320\273\321\214\320\272/\320\230\320\275\321\201\321\202\321\200\321\203\320\272\321\206\320\270\320\270 \320\272 \321\201\320\276\320\262\320\265\321\202\321\201\320\272\320\270\320\274 \320\272\320\260\320\273\321\214\320\272\321\203\320\273\321\217\321\202\320\276\321\200\320\260\320\274 :: \320\224\320\236\320\232\320\243\320\234\320\225\320\235\320\242\320\220\320\246\320\230\320\257_files/defaultru.js"
	deleted:                    "DATASHEETS/\320\230\320\241\320\232\320\240\320\220_\320\277\321\200\320\276\321\207\320\270\320\265_\320\272\320\260\320\273\321\214\320\272/\320\230\320\275\321\201\321\202\321\200\321\203\320\272\321\206\320\270\320\270 \320\272 \321\201\320\276\320\262\320\265\321\202\321\201\320\272\320\270\320\274 \320\272\320\260\320\273\321\214\320\272\321\203\320\273\321\217\321\202\320\276\321\200\320\260\320\274 :: \320\224\320\236\320\232\320\243\320\234\320\225\320\235\320\242\320\220\320\246\320\230\320\257_files/dos.gif"
	deleted:                    "DATASHEETS/\320\230\320\241\320\232\320\240\320\220_\320\277\321\200\320\276\321\207\320\270\320\265_\320\272\320\260\320\273\321\214\320\272/\320\230\320\275\321\201\321\202\321\200\321\203\320\272\321\206\320\270\320\270 \320\272 \321\201\320\276\320\262\320\265\321\202\321\201\320\272\320\270\320\274 \320\272\320\260\320\273\321\214\320\272\321\203\320\273\321\217\321\202\320\276\321\200\320\260\320\274 :: \320\224\320\236\320\232\320\243\320\234\320\225\320\235\320\242\320\220\320\246\320\230\320\257_files/file.gif"
	deleted:                    "DATASHEETS/\320\230\320\241\320\232\320\240\320\220_\320\277\321\200\320\276\321\207\320\270\320\265_\320\272\320\260\320\273\321\214\320\272/\320\230\320\275\321\201\321\202\321\200\321\203\320\272\321\206\320\270\320\270 \320\272 \321\201\320\276\320\262\320\265\321\202\321\201\320\272\320\270\320\274 \320\272\320\260\320\273\321\214\320\272\321\203\320\273\321\217\321\202\320\276\321\200\320\260\320\274 :: \320\224\320\236\320\232\320\243\320\234\320\225\320\235\320\242\320\220\320\246\320\230\320\257_files/file.jpeg"
	deleted:                    "DATASHEETS/\320\230\320\241\320\232\320\240\320\220_\320\277\321\200\320\276\321\207\320\270\320\265_\320\272\320\260\320\273\321\214\320\272/\320\230\320\275\321\201\321\202\321\200\321\203\320\272\321\206\320\270\320\270 \320\272 \321\201\320\276\320\262\320\265\321\202\321\201\320\272\320\270\320\274 \320\272\320\260\320\273\321\214\320\272\321\203\320\273\321\217\321\202\320\276\321\200\320\260\320\274 :: \320\224\320\236\320\232\320\243\320\234\320\225\320\235\320\242\320\220\320\246\320\230\320\257_files/file_002.jpeg"
	deleted:                    "DATASHEETS/\320\230\320\241\320\232\320\240\320\220_\320\277\321\200\320\276\321\207\320\270\320\265_\320\272\320\260\320\273\321\214\320\272/\320\230\320\275\321\201\321\202\321\200\321\203\320\272\321\206\320\270\320\270 \320\272 \321\201\320\276\320\262\320\265\321\202\321\201\320\272\320\270\320\274 \320\272\320\260\320\273\321\214\320\272\321\203\320\273\321\217\321\202\320\276\321\200\320\260\320\274 :: \320\224\320\236\320\232\320\243\320\234\320\225\320\235\320\242\320\220\320\246\320\230\320\257_files/file_003.jpeg"
	deleted:                    "DATASHEETS/\320\230\320\241\320\232\320\240\320\220_\320\277\321\200\320\276\321\207\320\270\320\265_\320\272\320\260\320\273\321\214\320\272/\320\230\320\275\321\201\321\202\321\200\321\203\320\272\321\206\320\270\320\270 \320\272 \321\201\320\276\320\262\320\265\321\202\321\201\320\272\320\270\320\274 \320\272\320\260\320\273\321\214\320\272\321\203\320\273\321\217\321\202\320\276\321\200\320\260\320\274 :: \320\224\320\236\320\232\320\243\320\234\320\225\320\235\320\242\320\220\320\246\320\230\320\257_files/googlelogo_grey_46x15dp.png"
	deleted:                    "DATASHEETS/\320\230\320\241\320\232\320\240\320\220_\320\277\321\200\320\276\321\207\320\270\320\265_\320\272\320\260\320\273\321\214\320\272/\320\230\320\275\321\201\321\202\321\200\321\203\320\272\321\206\320\270\320\270 \320\272 \321\201\320\276\320\262\320\265\321\202\321\201\320\272\320\270\320\274 \320\272\320\260\320\273\321\214\320\272\321\203\320\273\321\217\321\202\320\276\321\200\320\260\320\274 :: \320\224\320\236\320\232\320\243\320\234\320\225\320\235\320\242\320\220\320\246\320\230\320\257_files/gradblue.css"
	deleted:                    "DATASHEETS/\320\230\320\241\320\232\320\240\320\220_\320\277\321\200\320\276\321\207\320\270\320\265_\320\272\320\260\320\273\321\214\320\272/\320\230\320\275\321\201\321\202\321\200\321\203\320\272\321\206\320\270\320\270 \320\272 \321\201\320\276\320\262\320\265\321\202\321\201\320\272\320\270\320\274 \320\272\320\260\320\273\321\214\320\272\321\203\320\273\321\217\321\202\320\276\321\200\320\260\320\274 :: \320\224\320\236\320\232\320\243\320\234\320\225\320\235\320\242\320\220\320\246\320\230\320\257_files/jsapi"
	deleted:                    "DATASHEETS/\320\230\320\241\320\232\320\240\320\220_\320\277\321\200\320\276\321\207\320\270\320\265_\320\272\320\260\320\273\321\214\320\272/\320\230\320\275\321\201\321\202\321\200\321\203\320\272\321\206\320\270\320\270 \320\272 \321\201\320\276\320\262\320\265\321\202\321\201\320\272\320\270\320\274 \320\272\320\260\320\273\321\214\320\272\321\203\320\273\321\217\321\202\320\276\321\200\320\260\320\274 :: \320\224\320\236\320\232\320\243\320\234\320\225\320\235\320\242\320\220\320\246\320\230\320\257_files/logo_exper.gif"
	deleted:                    "DATASHEETS/\320\230\320\241\320\232\320\240\320\220_\320\277\321\200\320\276\321\207\320\270\320\265_\320\272\320\260\320\273\321\214\320\272/\320\230\320\275\321\201\321\202\321\200\321\203\320\272\321\206\320\270\320\270 \320\272 \321\201\320\276\320\262\320\265\321\202\321\201\320\272\320\270\320\274 \320\272\320\260\320\273\321\214\320\272\321\203\320\273\321\217\321\202\320\276\321\200\320\260\320\274 :: \320\224\320\236\320\232\320\243\320\234\320\225\320\235\320\242\320\220\320\246\320\230\320\257_files/minimalist.css"
	deleted:                    "DATASHEETS/\320\230\320\241\320\232\320\240\320\220_\320\277\321\200\320\276\321\207\320\270\320\265_\320\272\320\260\320\273\321\214\320\272/\320\230\320\275\321\201\321\202\321\200\321\203\320\272\321\206\320\270\320\270 \320\272 \321\201\320\276\320\262\320\265\321\202\321\201\320\272\320\270\320\274 \320\272\320\260\320\273\321\214\320\272\321\203\320\273\321\217\321\202\320\276\321\200\320\260\320\274 :: \320\224\320\236\320\232\320\243\320\234\320\225\320\235\320\242\320\220\320\246\320\230\320\257_files/rss.png"
	deleted:                    "DATASHEETS/\320\230\320\241\320\232\320\240\320\220_\320\277\321\200\320\276\321\207\320\270\320\265_\320\272\320\260\320\273\321\214\320\272/\320\230\320\275\321\201\321\202\321\200\321\203\320\272\321\206\320\270\320\270 \320\272 \321\201\320\276\320\262\320\265\321\202\321\201\320\272\320\270\320\274 \320\272\320\260\320\273\321\214\320\272\321\203\320\273\321\217\321\202\320\276\321\200\320\260\320\274 :: \320\224\320\236\320\232\320\243\320\234\320\225\320\235\320\242\320\220\320\246\320\230\320\257_files/watch.js"
	deleted:                    "DATASHEETS/\320\230\320\241\320\232\320\240\320\220_\320\277\321\200\320\276\321\207\320\270\320\265_\320\272\320\260\320\273\321\214\320\272/\320\230\321\201\320\272\321\200\320\260 123.djvu"
	deleted:                    "DATASHEETS/\320\230\320\241\320\232\320\240\320\220_\320\277\321\200\320\276\321\207\320\270\320\265_\320\272\320\260\320\273\321\214\320\272/\320\230\321\201\320\272\321\200\320\260 124.djvu"
	deleted:                    "DATASHEETS/\320\230\320\241\320\232\320\240\320\220_\320\277\321\200\320\276\321\207\320\270\320\265_\320\272\320\260\320\273\321\214\320\272/\320\234\321\203\320\273\321\214\321\202\320\270\320\274\320\265\321\202\321\200 V7-631-2.pdf"
	deleted:                    "\320\241\320\242\320\220\320\242\320\254\320\230/\320\222\320\275\321\203\321\202\321\200\320\270\321\201\321\205\320\265\320\274\320\275\320\276\320\265 \320\267\320\260\321\200\321\217\320\264\320\275\320\276\320\265 \321\203\321\201\321\202\321\200\320\276\320\271\321\201\321\202\320\262\320\276 \320\264\320\273\321\217 \320\273\320\270\321\202\320\270\320\265\320\262\321\213\321\205 \320\260\320\272\320\272\321\203\320\274\321\203\320\273\321\217\321\202\320\276\321\200\320\276\320\262.mp4"
	deleted:                    "\320\241\320\242\320\220\320\242\320\254\320\230/\320\234\320\265\320\264\320\275\320\265\320\275\320\270\320\265,\321\201\320\265\321\200\320\265\320\261\321\200\320\265\320\275\320\270\320\265 , \320\263\320\260\320\273\321\214\320\262\320\260\320\275\320\270\320\272\320\260. \320\247\320\270\321\201\321\202\320\272\320\260 \320\274\320\276\320\275\320\265\321\202 \320\270 \320\275\320\265 \321\202\320\276\320\273\321\214\320\272\320\276..mp4"
	deleted:                    "\320\241\320\242\320\220\320\242\320\254\320\230/\320\234\320\270\320\272\321\200\320\276\320\272\320\276\320\275\321\202\321\200\320\276\320\273\320\273\320\265\321\200\321\213_\320\237\320\265\321\200\320\262\321\213\320\265 \321\210\320\260\320\263\320\270/Interrupts+of+microcontroller+on+the+rising+edge.mp4"
	deleted:                    "\320\241\320\242\320\220\320\242\320\254\320\230/\320\234\320\270\320\272\321\200\320\276\320\272\320\276\320\275\321\202\321\200\320\276\320\273\320\273\320\265\321\200\321\213_\320\237\320\265\321\200\320\262\321\213\320\265 \321\210\320\260\320\263\320\270/Interrupts+the+microcontroller+on+the+falling+edge.flv"
	deleted:                    "\320\241\320\242\320\220\320\242\320\254\320\230/\320\234\320\270\320\272\321\200\320\276\320\272\320\276\320\275\321\202\321\200\320\276\320\273\320\273\320\265\321\200\321\213_\320\237\320\265\321\200\320\262\321\213\320\265 \321\210\320\260\320\263\320\270/MK Obzor Tip Korpusa.mp4"
	deleted:                    "\320\241\320\242\320\220\320\242\320\254\320\230/\320\234\320\270\320\272\321\200\320\276\320\272\320\276\320\275\321\202\321\200\320\276\320\273\320\273\320\265\321\200\321\213_\320\237\320\265\321\200\320\262\321\213\320\265 \321\210\320\260\320\263\320\270/MK StarterKit.mp4"
	deleted:                    "\320\241\320\242\320\220\320\242\320\254\320\230/\320\234\320\270\320\272\321\200\320\276\320\272\320\276\320\275\321\202\321\200\320\276\320\273\320\273\320\265\321\200\321\213_\320\237\320\265\321\200\320\262\321\213\320\265 \321\210\320\260\320\263\320\270/MK_Naznachenie_Vyvodov.mp4"
	deleted:                    "\320\241\320\242\320\220\320\242\320\254\320\230/\320\234\320\270\320\272\321\200\320\276\320\272\320\276\320\275\321\202\321\200\320\276\320\273\320\273\320\265\321\200\321\213_\320\237\320\265\321\200\320\262\321\213\320\265 \321\210\320\260\320\263\320\270/MK_Programmator_i_Obvyazka.mp4"
	deleted:                    "\320\241\320\242\320\220\320\242\320\254\320\230/\320\234\320\270\320\272\321\200\320\276\320\272\320\276\320\275\321\202\321\200\320\276\320\273\320\273\320\265\321\200\321\213_\320\237\320\265\321\200\320\262\321\213\320\265 \321\210\320\260\320\263\320\270/MK_Proshivka.mp4"
	deleted:                    "\320\241\320\242\320\220\320\242\320\254\320\230/\320\234\320\270\320\272\321\200\320\276\320\272\320\276\320\275\321\202\321\200\320\276\320\273\320\273\320\265\321\200\321\213_\320\237\320\265\321\200\320\262\321\213\320\265 \321\210\320\260\320\263\320\270/Programmirovanie cherez LPT.mp4"
	deleted:                    "\320\241\320\242\320\220\320\242\320\254\320\230/\320\234\320\270\320\272\321\200\320\276\320\272\320\276\320\275\321\202\321\200\320\276\320\273\320\273\320\265\321\200\321\213_\320\237\320\265\321\200\320\262\321\213\320\265 \321\210\320\260\320\263\320\270/\320\234\320\270\320\272\321\200\320\276\320\272\320\276\320\275\321\202\321\200\320\276\320\273\320\273\320\265\321\200\321\213 \320\264\320\273\321\217 \320\275\320\260\321\207\320\270\320\275\320\260\321\216\321\211\320\270\321\205. \320\222\320\270\320\264\320\265\320\276\321\203\321\200\320\276\320\272. \320\222\320\275\320\265\321\210\320\275\320\270\320\265 \320\277\321\200\320\265\321\200\321\213\320\262\320\260\320\275\320\270\321\217 (\320\277\321\200\320\260\320\272\321\202\320\270\320\272\320\260 \321\207.1).mp4"
	deleted:                    "\320\241\320\242\320\220\320\242\320\254\320\230/\320\234\320\270\320\272\321\200\320\276\320\272\320\276\320\275\321\202\321\200\320\276\320\273\320\273\320\265\321\200\321\213_\320\237\320\265\321\200\320\262\321\213\320\265 \321\210\320\260\320\263\320\270/\320\242\320\265\320\272\321\201\321\202 \320\277\321\200\320\276\320\263\321\200\320\260\320\274\320\274\321\213 \320\276\320\261\321\200\320\260\320\261\320\276\321\202\320\272\320\270 \320\277\321\200\320\265\321\200\321\213\320\262\320\260\320\275\320\270\320\271 \320\275\320\260 CVAVR.txt"
	deleted:                    "\320\241\320\242\320\220\320\242\320\254\320\230/\320\237\320\276\320\264\320\272\320\273\321\216\321\207\320\260\320\265\320\274 \320\264\320\270\321\201\320\277\320\273\320\265\320\271 \320\276\321\202 \321\201\320\276\321\202\320\270\320\272\320\260 \320\270\320\273\320\270 \320\274\320\276\320\261\320\270\320\273\321\214\320\275\320\276\320\263\320\276 \321\202\320\265\320\273\320\265\321\204\320\276\320\275\320\260 \320\272 \320\220\321\200\320\264\321\203\320\270\320\275\320\276.mp4"
	deleted:                    "\320\241\320\242\320\220\320\242\320\254\320\230/\320\237\321\200\320\270\320\275\321\206\320\270\320\277 \321\200\320\260\320\261\320\276\321\202\321\213 \320\272\320\276\320\275\321\202\321\200\320\276\320\273\320\273\320\265\321\200\320\260 \320\267\320\260\321\200\321\217\320\264\320\260 BQ24725 \320\276\321\202 Texas Instruments.mp4"

Неотслеживаемые файлы:
	gitcommit.txt

нет изменений добавленных для коммита
