Synario 3.00 Data I/O Corp.
JEDEC file for: P22V10 V
Created on: Tue Dec 26 22:34:29 2000

PCI bus controller
*
QP24* QF5828* QV0* F0*
 X0*
NOTE Table of pin names and numbers*
NOTE PINS CLK:1 FRAME:2 IRDY:3 CB0:6 CB1:7 CB2:8 CB3:9 EQL:4 EQH:5*
NOTE PINS RES:13 DEVSEL:22 TRDY:23 RE:21 WC0:17 WC1:16 WC2:15 WC3:14*
NOTE Table of node names and numbers*
NOTE NODES S0:20 S1:19 S2:18*
L0044 11111111111111111110111111111111111111111111*
L0088 11111111111111101101111011111111111111111101*
L0132 11111011111111011110111111111111111111111101*
L0176 11111011011110111010010101111011101111111101*
L0220 11111011011110011011011001111011101111111101*
L0440 11111111111111111110111111111111111111111111*
L0484 11111111111111101101111011111111111111111101*
L0528 11111011111111011110111111111111111111111101*
L0572 11111011011110111010010101111011101111111101*
L0616 11111011011110011011011001111011101111111101*
L0924 11111111111111111111111111111111111111111111*
L0968 11111111111111101101111011111111111111111101*
L1012 11111011111111011110111011111111111111111101*
L1496 11111111111111111111111111111111111111111111*
L1540 11110111111111011110111111111111111111111101*
L1584 11111011011110101010100101111011101111111101*
L1628 11111011011110011001101001111011101111111101*
L2156 11111111111111111111111111111111111111111111*
L2200 11111111111111101101111011111111111111111101*
L2244 11111111111111011110111111111111111111111101*
L2288 11111011011110111010010101111011101111111101*
L2332 11111011011110011011011001111011101111111101*
L2904 11111111111111111111111111111111111111111111*
L2948 11111111111111111110111011111111111111111101*
L2992 11111111111111101111111011111111111111111101*
L3036 11111111101111101110111111111111111111111101*
L3080 11110111111111101110111111111111111111111101*
L3124 11110111011111011101111111111111111111111101*
L3168 11111111111111100110111111111111111111111101*
L3212 11111111111101101110111111111111111111111101*
L3256 11111111111111101110101111111111111111111101*
L3300 11111111111111101110111110111111111111111101*
L3344 11111111111111101110111111110111111111111101*
L3388 11111111111111101110111111111111011111111101*
L3432 11111111011110111011101001111011101111111101*
L3652 11111111111111111111111111111111111111111111*
L3696 11110111111111011110100111111111111111111101*
L4312 11111111111111111111111111111111111111111111*
L4356 11110111111111011110110110111111111111111101*
L4884 11111111111111111111111111111111111111111111*
L4928 11110111111111011110110111111011111111111101*
L5368 11111111111111111111111111111111111111111111*
L5412 11110111111111011110110111111111101111111101*
L5808 00000010101010101010*
CD0D9*
1629
