Flow report for pco1
Thu Mar 12 13:20:02 2009
Quartus II Version 7.1 Build 156 04/30/2007 SJ Full Version


---------------------
; Table of Contents ;
---------------------
  1. Legal Notice
  2. Flow Summary
  3. Flow Settings
  4. Flow Non-Default Global Settings
  5. Flow Elapsed Time
  6. Flow Log



----------------
; Legal Notice ;
----------------
Copyright (C) 1991-2007 Altera Corporation
Your use of Altera Corporation's design tools, logic functions 
and other software and tools, and its AMPP partner logic 
functions, and any output files from any of the foregoing 
(including device programming or simulation files), and any 
associated documentation or information are expressly subject 
to the terms and conditions of the Altera Program License 
Subscription Agreement, Altera MegaCore Function License 
Agreement, or other applicable license agreement, including, 
without limitation, that your use is for the sole purpose of 
programming logic devices manufactured by Altera and sold by 
Altera or its authorized distributors.  Please refer to the 
applicable agreement for further details.



+--------------------------------------------------------------------+
; Flow Summary                                                       ;
+-------------------------+------------------------------------------+
; Flow Status             ; Successful - Thu Mar 12 13:20:01 2009    ;
; Quartus II Version      ; 7.1 Build 156 04/30/2007 SJ Full Version ;
; Revision Name           ; pco1                                     ;
; Top-level Entity Name   ; pco1                                     ;
; Family                  ; MAX7000S                                 ;
; Device                  ; EPM7064SLC44-10                          ;
; Timing Models           ; Final                                    ;
; Met timing requirements ; No                                       ;
; Total macrocells        ; 64 / 64 ( 100 % )                        ;
; Total pins              ; 31 / 36 ( 86 % )                         ;
+-------------------------+------------------------------------------+


+-----------------------------------------+
; Flow Settings                           ;
+-------------------+---------------------+
; Option            ; Setting             ;
+-------------------+---------------------+
; Start date & time ; 03/12/2009 13:19:45 ;
; Main task         ; Compilation         ;
; Revision Name     ; pco1                ;
+-------------------+---------------------+


+--------------------------------------------------------------------------------------------------------------------+
; Flow Non-Default Global Settings                                                                                   ;
+-----------------------------------------+--------------+--------------------------------+-------------+------------+
; Assignment Name                         ; Value        ; Default Value                  ; Entity Name ; Section Id ;
+-----------------------------------------+--------------+--------------------------------+-------------+------------+
; ADD_PASS_THROUGH_LOGIC_TO_INFERRED_RAMS ; Off          ; On                             ; --          ; --         ;
; AUTO_GLOBAL_OE_MAX                      ; Off          ; On                             ; --          ; --         ;
; AUTO_OPEN_DRAIN_PINS                    ; Off          ; On                             ; --          ; --         ;
; FITTER_EFFORT                           ; Standard Fit ; Auto Fit                       ; --          ; --         ;
; MAX7000_IGNORE_LCELL_BUFFERS            ; Off          ; Auto                           ; --          ; --         ;
; MAX7000_OPTIMIZATION_TECHNIQUE          ; Balanced     ; Speed                          ; --          ; --         ;
; MAX_AUTO_GLOBAL_REGISTER_CONTROLS       ; Off          ; On                             ; --          ; --         ;
; OPTIMIZE_HOLD_TIMING                    ; Off          ; IO Paths and Minimum TPD Paths ; --          ; --         ;
; SLOW_SLEW_RATE                          ; On           ; Off                            ; --          ; --         ;
+-----------------------------------------+--------------+--------------------------------+-------------+------------+


+----------------------------------------+
; Flow Elapsed Time                      ;
+-------------------------+--------------+
; Module Name             ; Elapsed Time ;
+-------------------------+--------------+
; Analysis & Synthesis    ; 00:00:04     ;
; Fitter                  ; 00:00:01     ;
; Assembler               ; 00:00:05     ;
; Classic Timing Analyzer ; 00:00:02     ;
; Total                   ; 00:00:12     ;
+-------------------------+--------------+


------------
; Flow Log ;
------------
quartus_map --read_settings_files=on --write_settings_files=off pco1 -c pco1
quartus_fit --read_settings_files=off --write_settings_files=off pco1 -c pco1
quartus_asm --read_settings_files=off --write_settings_files=off pco1 -c pco1
quartus_tan --read_settings_files=off --write_settings_files=off pco1 -c pco1



